{"results":[{"congress":112,"last_version_on":"2012-12-19","sponsor_id":"L000261","urls":{"govtrack":"http://www.govtrack.us/congress/bills/112/sres618","opencongress":"http://www.opencongress.org/bill/112-sr618/show","congress":"http://beta.congress.gov/bill/112th/senate-resolution/618"},"committee_ids":["SSJU"],"official_title":"A resolution observing the 100th birthday of civil rights icon Rosa Parks and commemorating her legacy.","number":618,"sponsor":{"name_suffix":null,"first_name":"Carl","title":"Sen","nickname":null,"middle_name":null,"last_name":"Levin"},"bill_type":"sres","last_vote_at":"2012-12-19","history":{"senate_passage_result_at":"2012-12-19","senate_passage_result":"pass","vetoed":false,"active_at":"2012-12-19","active":true,"awaiting_signature":false,"enacted":false},"cosponsors_count":58,"short_title":null,"enacted_as":null,"popular_title":null,"related_bill_ids":["hres832-112"],"last_version":{"version_name":"Agreed to Senate","bill_version_id":"sres618-112-ats","urls":{"pdf":"http://www.gpo.gov/fdsys/pkg/BILLS-112sres618ats/pdf/BILLS-112sres618ats.pdf","xml":"http://www.gpo.gov/fdsys/pkg/BILLS-112sres618ats/xml/BILLS-112sres618ats.xml","html":"http://www.gpo.gov/fdsys/pkg/BILLS-112sres618ats/html/BILLS-112sres618ats.htm"},"pages":5,"issued_on":"2012-12-19","version_code":"ats"},"last_action_at":"2012-12-19","withdrawn_cosponsors_count":0,"bill_id":"sres618-112","introduced_on":"2012-12-13","chamber":"senate","search":{"score":1,"type":"bill"}},{"congress":111,"last_version_on":"2009-01-06","sponsor_id":"V000127","urls":{"govtrack":"http://www.govtrack.us/congress/bills/111/s91","opencongress":"http://www.opencongress.org/bill/111-s91/show","congress":"http://beta.congress.gov/bill/111th/senate-bill/91"},"committee_ids":["SSFR"],"official_title":"A bill to reduce the amount of financial assistance provided to the Government of Mexico in response to the illegal border crossings from Mexico into the United States, which serve to dissipate the political discontent with the higher unemployment rate within Mexico.","number":91,"sponsor":{"name_suffix":null,"first_name":"David","title":"Sen","nickname":null,"middle_name":null,"last_name":"Vitter"},"bill_type":"s","last_vote_at":null,"history":{"vetoed":false,"active":false,"awaiting_signature":false,"enacted":false},"cosponsors_count":0,"short_title":null,"enacted_as":null,"popular_title":null,"related_bill_ids":[],"last_version":{"version_name":"Introduced in Senate","bill_version_id":"s91-111-is","urls":{"pdf":"http://www.gpo.gov/fdsys/pkg/BILLS-111s91is/pdf/BILLS-111s91is.pdf","xml":"http://www.gpo.gov/fdsys/pkg/BILLS-111s91is/xml/BILLS-111s91is.xml","html":"http://www.gpo.gov/fdsys/pkg/BILLS-111s91is/html/BILLS-111s91is.htm"},"pages":2,"issued_on":"2009-01-06","version_code":"is"},"last_action_at":"2009-01-06","withdrawn_cosponsors_count":0,"bill_id":"s91-111","introduced_on":"2009-01-06","chamber":"senate","search":{"score":1,"type":"bill"}},{"congress":111,"last_version_on":"2009-01-06","sponsor_id":"V000127","urls":{"govtrack":"http://www.govtrack.us/congress/bills/111/s99","opencongress":"http://www.opencongress.org/bill/111-s99/show","congress":"http://beta.congress.gov/bill/111th/senate-bill/99"},"committee_ids":["SSFI"],"official_title":"A bill to amend the Internal Revenue Code of 1986 to provide a Federal income tax credit for certain stem cell research expenditures.","number":99,"sponsor":{"name_suffix":null,"first_name":"David","title":"Sen","nickname":null,"middle_name":null,"last_name":"Vitter"},"bill_type":"s","last_vote_at":null,"history":{"vetoed":false,"active":false,"awaiting_signature":false,"enacted":false},"cosponsors_count":0,"short_title":"Ethical Stem Cell Research Tax Credit Act of 2009","enacted_as":null,"popular_title":null,"related_bill_ids":[],"last_version":{"version_name":"Introduced in Senate","bill_version_id":"s99-111-is","urls":{"pdf":"http://www.gpo.gov/fdsys/pkg/BILLS-111s99is/pdf/BILLS-111s99is.pdf","xml":"http://www.gpo.gov/fdsys/pkg/BILLS-111s99is/xml/BILLS-111s99is.xml","html":"http://www.gpo.gov/fdsys/pkg/BILLS-111s99is/html/BILLS-111s99is.htm"},"pages":6,"issued_on":"2009-01-06","version_code":"is"},"last_action_at":"2009-01-06","withdrawn_cosponsors_count":0,"bill_id":"s99-111","introduced_on":"2009-01-06","chamber":"senate","search":{"score":1,"type":"bill"}},{"congress":111,"last_version_on":"2009-01-06","sponsor_id":"F000062","urls":{"govtrack":"http://www.govtrack.us/congress/bills/111/s116","opencongress":"http://www.opencongress.org/bill/111-s116/show","congress":"http://beta.congress.gov/bill/111th/senate-bill/116"},"committee_ids":["SSBK"],"official_title":"A bill to require the Secretary of the Treasury to allocate $10,000,000,000 of Troubled Asset Relief Program funds to local governments that have suffered significant losses due to highly-rated investments in failed financial institutions.","number":116,"sponsor":{"name_suffix":null,"first_name":"Dianne","title":"Sen","nickname":null,"middle_name":null,"last_name":"Feinstein"},"bill_type":"s","last_vote_at":null,"history":{"vetoed":false,"active":false,"awaiting_signature":false,"enacted":false},"cosponsors_count":0,"short_title":"TARP Assistance for Local Governments Act of 2009","enacted_as":null,"popular_title":null,"related_bill_ids":[],"last_version":{"version_name":"Introduced in Senate","bill_version_id":"s116-111-is","urls":{"pdf":"http://www.gpo.gov/fdsys/pkg/BILLS-111s116is/pdf/BILLS-111s116is.pdf","xml":"http://www.gpo.gov/fdsys/pkg/BILLS-111s116is/xml/BILLS-111s116is.xml","html":"http://www.gpo.gov/fdsys/pkg/BILLS-111s116is/html/BILLS-111s116is.htm"},"pages":2,"issued_on":"2009-01-06","version_code":"is"},"last_action_at":"2009-01-06","withdrawn_cosponsors_count":0,"bill_id":"s116-111","introduced_on":"2009-01-06","chamber":"senate","search":{"score":1,"type":"bill"}},{"congress":111,"last_version_on":"2009-01-06","sponsor_id":"V000127","urls":{"govtrack":"http://www.govtrack.us/congress/bills/111/s89","opencongress":"http://www.opencongress.org/bill/111-s89/show","congress":"http://beta.congress.gov/bill/111th/senate-bill/89"},"committee_ids":["SSBK"],"official_title":"A bill to authorize the Moving to Work Charter program to enable public housing agencies to improve the effectiveness of Federal housing assistance, and for other purposes.","number":89,"sponsor":{"name_suffix":null,"first_name":"David","title":"Sen","nickname":null,"middle_name":null,"last_name":"Vitter"},"bill_type":"s","last_vote_at":null,"history":{"vetoed":false,"active":false,"awaiting_signature":false,"enacted":false},"cosponsors_count":0,"short_title":"Moving to Work Charter Program Act of 2009","enacted_as":null,"popular_title":null,"related_bill_ids":[],"last_version":{"version_name":"Introduced in Senate","bill_version_id":"s89-111-is","urls":{"pdf":"http://www.gpo.gov/fdsys/pkg/BILLS-111s89is/pdf/BILLS-111s89is.pdf","html":"http://www.gpo.gov/fdsys/pkg/BILLS-111s89is/html/BILLS-111s89is.htm"},"pages":15,"issued_on":"2009-01-06","version_code":"is"},"last_action_at":"2009-01-06","withdrawn_cosponsors_count":0,"bill_id":"s89-111","introduced_on":"2009-01-06","chamber":"senate","search":{"score":1,"type":"bill"}},{"congress":111,"last_version_on":"2009-01-06","sponsor_id":"V000127","urls":{"govtrack":"http://www.govtrack.us/congress/bills/111/s97","opencongress":"http://www.opencongress.org/bill/111-s97/show","congress":"http://beta.congress.gov/bill/111th/senate-bill/97"},"committee_ids":["SSFI"],"official_title":"A bill to amend title IV of the Social Security Act to require States to implement a drug testing program for applicants for and recipients of assistance under the Temporary Assistance for Needy Families (TANF) program.","number":97,"sponsor":{"name_suffix":null,"first_name":"David","title":"Sen","nickname":null,"middle_name":null,"last_name":"Vitter"},"bill_type":"s","last_vote_at":null,"history":{"vetoed":false,"active":false,"awaiting_signature":false,"enacted":false},"cosponsors_count":0,"short_title":"Drug Free Families Act of 2009","enacted_as":null,"popular_title":null,"related_bill_ids":[],"last_version":{"version_name":"Introduced in Senate","bill_version_id":"s97-111-is","urls":{"pdf":"http://www.gpo.gov/fdsys/pkg/BILLS-111s97is/pdf/BILLS-111s97is.pdf","xml":"http://www.gpo.gov/fdsys/pkg/BILLS-111s97is/xml/BILLS-111s97is.xml","html":"http://www.gpo.gov/fdsys/pkg/BILLS-111s97is/html/BILLS-111s97is.htm"},"pages":8,"issued_on":"2009-01-06","version_code":"is"},"last_action_at":"2009-01-06","withdrawn_cosponsors_count":0,"bill_id":"s97-111","introduced_on":"2009-01-06","chamber":"senate","search":{"score":1,"type":"bill"}},{"congress":111,"last_version_on":"2009-01-06","sponsor_id":"M000303","urls":{"govtrack":"http://www.govtrack.us/congress/bills/111/s40","opencongress":"http://www.opencongress.org/bill/111-s40/show","congress":"http://beta.congress.gov/bill/111th/senate-bill/40"},"committee_ids":["SSEG"],"official_title":"A bill to designate Fossil Creek, a tributary of the Verde River in the State of Arizona, as a component of the National Wild and Scenic Rivers System.","number":40,"sponsor":{"name_suffix":null,"first_name":"John","title":"Sen","nickname":null,"middle_name":"S.","last_name":"McCain"},"bill_type":"s","last_vote_at":null,"history":{"vetoed":false,"active":false,"awaiting_signature":false,"enacted":false},"cosponsors_count":1,"short_title":"Fossil Creek Wild and Scenic River Act","enacted_as":null,"popular_title":null,"related_bill_ids":["s22-111"],"last_version":{"version_name":"Introduced in Senate","bill_version_id":"s40-111-is","urls":{"pdf":"http://www.gpo.gov/fdsys/pkg/BILLS-111s40is/pdf/BILLS-111s40is.pdf","xml":"http://www.gpo.gov/fdsys/pkg/BILLS-111s40is/xml/BILLS-111s40is.xml","html":"http://www.gpo.gov/fdsys/pkg/BILLS-111s40is/html/BILLS-111s40is.htm"},"pages":4,"issued_on":"2009-01-06","version_code":"is"},"last_action_at":"2009-01-06","withdrawn_cosponsors_count":0,"bill_id":"s40-111","introduced_on":"2009-01-06","chamber":"senate","search":{"score":1,"type":"bill"}},{"congress":111,"last_version_on":"2009-01-07","sponsor_id":"B000944","urls":{"govtrack":"http://www.govtrack.us/congress/bills/111/s29","opencongress":"http://www.opencongress.org/bill/111-s29/show","congress":"http://beta.congress.gov/bill/111th/senate-bill/29"},"committee_ids":["SSFI"],"official_title":"A bill to amend the Internal Revenue Code of 1986 to increase the credit for the health insurance costs of eligible individuals, to expand such credit to individuals covered under COBRA, and to extend the period of COBRA continuation coverage for certain individuals.","number":29,"sponsor":{"name_suffix":null,"first_name":"Sherrod","title":"Sen","nickname":null,"middle_name":null,"last_name":"Brown"},"bill_type":"s","last_vote_at":null,"history":{"vetoed":false,"active":false,"awaiting_signature":false,"enacted":false},"cosponsors_count":0,"short_title":"Coverage Continuity Act","enacted_as":null,"popular_title":null,"related_bill_ids":[],"last_version":{"version_name":"Introduced in Senate","bill_version_id":"s29-111-is","urls":{"pdf":"http://www.gpo.gov/fdsys/pkg/BILLS-111s29is/pdf/BILLS-111s29is.pdf","html":"http://www.gpo.gov/fdsys/pkg/BILLS-111s29is/html/BILLS-111s29is.htm"},"pages":5,"issued_on":"2009-01-07","version_code":"is"},"last_action_at":"2009-01-07","withdrawn_cosponsors_count":0,"bill_id":"s29-111","introduced_on":"2009-01-07","chamber":"senate","search":{"score":1,"type":"bill"}},{"congress":111,"last_version_on":"2009-01-06","sponsor_id":"I000025","urls":{"govtrack":"http://www.govtrack.us/congress/bills/111/s54","opencongress":"http://www.opencongress.org/bill/111-s54/show","congress":"http://beta.congress.gov/bill/111th/senate-bill/54"},"committee_ids":["SSFI"],"official_title":"A bill to amend title XVIII of the Social Security Act to provide for patient protection by establishing minimum nurse staffing ratios at certain Medicare providers, and for other purposes.","number":54,"sponsor":{"name_suffix":null,"first_name":"Daniel","title":"Sen","nickname":null,"middle_name":"K.","last_name":"Inouye"},"bill_type":"s","last_vote_at":null,"history":{"vetoed":false,"active":false,"awaiting_signature":false,"enacted":false},"cosponsors_count":0,"short_title":"Registered Nurse Safe Staffing Act of 2009","enacted_as":null,"popular_title":null,"related_bill_ids":[],"last_version":{"version_name":"Introduced in Senate","bill_version_id":"s54-111-is","urls":{"pdf":"http://www.gpo.gov/fdsys/pkg/BILLS-111s54is/pdf/BILLS-111s54is.pdf","xml":"http://www.gpo.gov/fdsys/pkg/BILLS-111s54is/xml/BILLS-111s54is.xml","html":"http://www.gpo.gov/fdsys/pkg/BILLS-111s54is/html/BILLS-111s54is.htm"},"pages":14,"issued_on":"2009-01-06","version_code":"is"},"last_action_at":"2009-01-06","withdrawn_cosponsors_count":0,"bill_id":"s54-111","introduced_on":"2009-01-06","chamber":"senate","search":{"score":1,"type":"bill"}},{"congress":111,"last_version_on":"2009-01-06","sponsor_id":"I000025","urls":{"govtrack":"http://www.govtrack.us/congress/bills/111/s55","opencongress":"http://www.opencongress.org/bill/111-s55/show","congress":"http://beta.congress.gov/bill/111th/senate-bill/55"},"committee_ids":["SSFI"],"official_title":"A bill to amend title XVIII of the Social Security Act to provide improved reimbursement for clinical social worker services under the Medicare program.","number":55,"sponsor":{"name_suffix":null,"first_name":"Daniel","title":"Sen","nickname":null,"middle_name":"K.","last_name":"Inouye"},"bill_type":"s","last_vote_at":null,"history":{"vetoed":false,"active":false,"awaiting_signature":false,"enacted":false},"cosponsors_count":0,"short_title":"Equity for Clinical Social Workers Act of 2009","enacted_as":null,"popular_title":null,"related_bill_ids":[],"last_version":{"version_name":"Introduced in Senate","bill_version_id":"s55-111-is","urls":{"pdf":"http://www.gpo.gov/fdsys/pkg/BILLS-111s55is/pdf/BILLS-111s55is.pdf","xml":"http://www.gpo.gov/fdsys/pkg/BILLS-111s55is/xml/BILLS-111s55is.xml","html":"http://www.gpo.gov/fdsys/pkg/BILLS-111s55is/html/BILLS-111s55is.htm"},"pages":3,"issued_on":"2009-01-06","version_code":"is"},"last_action_at":"2009-01-06","withdrawn_cosponsors_count":0,"bill_id":"s55-111","introduced_on":"2009-01-06","chamber":"senate","search":{"score":1,"type":"bill"}},{"congress":111,"last_version_on":"2009-01-06","sponsor_id":"V000127","urls":{"govtrack":"http://www.govtrack.us/congress/bills/111/s84","opencongress":"http://www.opencongress.org/bill/111-s84/show","congress":"http://beta.congress.gov/bill/111th/senate-bill/84"},"committee_ids":["SSBK"],"official_title":"A bill to close the loophole that allowed the 9/11 hijackers to obtain credit cards from United States banks that financed their terrorist activities, to ensure that illegal immigrants cannot obtain credit cards to evade United States immigration laws, and for other purposes.","number":84,"sponsor":{"name_suffix":null,"first_name":"David","title":"Sen","nickname":null,"middle_name":null,"last_name":"Vitter"},"bill_type":"s","last_vote_at":null,"history":{"vetoed":false,"active":false,"awaiting_signature":false,"enacted":false},"cosponsors_count":3,"short_title":null,"enacted_as":null,"popular_title":null,"related_bill_ids":[],"last_version":{"version_name":"Introduced in Senate","bill_version_id":"s84-111-is","urls":{"pdf":"http://www.gpo.gov/fdsys/pkg/BILLS-111s84is/pdf/BILLS-111s84is.pdf","html":"http://www.gpo.gov/fdsys/pkg/BILLS-111s84is/html/BILLS-111s84is.htm"},"pages":3,"issued_on":"2009-01-06","version_code":"is"},"last_action_at":"2009-01-06","withdrawn_cosponsors_count":0,"bill_id":"s84-111","introduced_on":"2009-01-06","chamber":"senate","search":{"score":1,"type":"bill"}},{"congress":111,"last_version_on":"2009-01-06","sponsor_id":"I000025","urls":{"govtrack":"http://www.govtrack.us/congress/bills/111/s59","opencongress":"http://www.opencongress.org/bill/111-s59/show","congress":"http://beta.congress.gov/bill/111th/senate-bill/59"},"committee_ids":["SSHR"],"official_title":"A bill to amend title VII of the Public Health Service Act to make certain graduate programs in professional psychology eligible to participate in various health professions loan programs.","number":59,"sponsor":{"name_suffix":null,"first_name":"Daniel","title":"Sen","nickname":null,"middle_name":"K.","last_name":"Inouye"},"bill_type":"s","last_vote_at":null,"history":{"vetoed":false,"active":false,"awaiting_signature":false,"enacted":false},"cosponsors_count":0,"short_title":"Strengthen the Public Health Service Act","enacted_as":null,"popular_title":null,"related_bill_ids":[],"last_version":{"version_name":"Introduced in Senate","bill_version_id":"s59-111-is","urls":{"pdf":"http://www.gpo.gov/fdsys/pkg/BILLS-111s59is/pdf/BILLS-111s59is.pdf","xml":"http://www.gpo.gov/fdsys/pkg/BILLS-111s59is/xml/BILLS-111s59is.xml","html":"http://www.gpo.gov/fdsys/pkg/BILLS-111s59is/html/BILLS-111s59is.htm"},"pages":3,"issued_on":"2009-01-06","version_code":"is"},"last_action_at":"2009-01-06","withdrawn_cosponsors_count":0,"bill_id":"s59-111","introduced_on":"2009-01-06","chamber":"senate","search":{"score":1,"type":"bill"}},{"congress":111,"last_version_on":"2009-01-06","sponsor_id":"I000025","urls":{"govtrack":"http://www.govtrack.us/congress/bills/111/s57","opencongress":"http://www.opencongress.org/bill/111-s57/show","congress":"http://beta.congress.gov/bill/111th/senate-bill/57"},"committee_ids":["SSHR"],"official_title":"A bill to amend title VII of the Public Health Service Act to establish a psychology post-doctoral fellowship program, and for other purposes.","number":57,"sponsor":{"name_suffix":null,"first_name":"Daniel","title":"Sen","nickname":null,"middle_name":"K.","last_name":"Inouye"},"bill_type":"s","last_vote_at":null,"history":{"vetoed":false,"active":false,"awaiting_signature":false,"enacted":false},"cosponsors_count":0,"short_title":"Psychologists in the Service of the Public Act of 2009","enacted_as":null,"popular_title":null,"related_bill_ids":[],"last_version":{"version_name":"Introduced in Senate","bill_version_id":"s57-111-is","urls":{"pdf":"http://www.gpo.gov/fdsys/pkg/BILLS-111s57is/pdf/BILLS-111s57is.pdf","xml":"http://www.gpo.gov/fdsys/pkg/BILLS-111s57is/xml/BILLS-111s57is.xml","html":"http://www.gpo.gov/fdsys/pkg/BILLS-111s57is/html/BILLS-111s57is.htm"},"pages":4,"issued_on":"2009-01-06","version_code":"is"},"last_action_at":"2009-01-06","withdrawn_cosponsors_count":0,"bill_id":"s57-111","introduced_on":"2009-01-06","chamber":"senate","search":{"score":1,"type":"bill"}},{"congress":111,"last_version_on":"2009-01-06","sponsor_id":"V000127","urls":{"govtrack":"http://www.govtrack.us/congress/bills/111/s87","opencongress":"http://www.opencongress.org/bill/111-s87/show","congress":"http://beta.congress.gov/bill/111th/senate-bill/87"},"committee_ids":["SSHR"],"official_title":"A bill to amend the procedures regarding military recruiter access to secondary school student recruiting information.","number":87,"sponsor":{"name_suffix":null,"first_name":"David","title":"Sen","nickname":null,"middle_name":null,"last_name":"Vitter"},"bill_type":"s","last_vote_at":null,"history":{"vetoed":false,"active":false,"awaiting_signature":false,"enacted":false},"cosponsors_count":0,"short_title":null,"enacted_as":null,"popular_title":null,"related_bill_ids":["hr1026-111","hr1091-111"],"last_version":{"version_name":"Introduced in Senate","bill_version_id":"s87-111-is","urls":{"pdf":"http://www.gpo.gov/fdsys/pkg/BILLS-111s87is/pdf/BILLS-111s87is.pdf","xml":"http://www.gpo.gov/fdsys/pkg/BILLS-111s87is/xml/BILLS-111s87is.xml","html":"http://www.gpo.gov/fdsys/pkg/BILLS-111s87is/html/BILLS-111s87is.htm"},"pages":6,"issued_on":"2009-01-06","version_code":"is"},"last_action_at":"2009-01-06","withdrawn_cosponsors_count":0,"bill_id":"s87-111","introduced_on":"2009-01-06","chamber":"senate","search":{"score":1,"type":"bill"}},{"congress":111,"last_version_on":"2009-01-07","sponsor_id":"L000035","urls":{"govtrack":"http://www.govtrack.us/congress/bills/111/s26","opencongress":"http://www.opencongress.org/bill/111-s26/show","congress":"http://beta.congress.gov/bill/111th/senate-bill/26"},"committee_ids":["SSFI"],"official_title":"A bill to amend the Internal Revenue Code of 1986 to reset the income threshold used to calculate the refundable portion of the child tax credit and to repeal the sunset for certain prior modifications made to the credit.","number":26,"sponsor":{"name_suffix":null,"first_name":"Blanche","title":"Sen","nickname":null,"middle_name":"Lambert","last_name":"Lincoln"},"bill_type":"s","last_vote_at":null,"history":{"vetoed":false,"active":false,"awaiting_signature":false,"enacted":false},"cosponsors_count":1,"short_title":"Working Family Child Assistance Act","enacted_as":null,"popular_title":null,"related_bill_ids":[],"last_version":{"version_name":"Introduced in Senate","bill_version_id":"s26-111-is","urls":{"pdf":"http://www.gpo.gov/fdsys/pkg/BILLS-111s26is/pdf/BILLS-111s26is.pdf","html":"http://www.gpo.gov/fdsys/pkg/BILLS-111s26is/html/BILLS-111s26is.htm"},"pages":2,"issued_on":"2009-01-07","version_code":"is"},"last_action_at":"2009-01-07","withdrawn_cosponsors_count":0,"bill_id":"s26-111","introduced_on":"2009-01-07","chamber":"senate","search":{"score":1,"type":"bill"}},{"congress":111,"last_version_on":"2009-01-06","sponsor_id":"S000709","urls":{"govtrack":"http://www.govtrack.us/congress/bills/111/s32","opencongress":"http://www.opencongress.org/bill/111-s32/show","congress":"http://beta.congress.gov/bill/111th/senate-bill/32"},"committee_ids":["SSEG"],"official_title":"A bill to require the Federal Energy Regulatory Commission to hold at least 1 public hearing before issuance of a permit affecting public or private land use in a locality.","number":32,"sponsor":{"name_suffix":null,"first_name":"Arlen","title":"Sen","nickname":null,"middle_name":null,"last_name":"Specter"},"bill_type":"s","last_vote_at":null,"history":{"vetoed":false,"active":false,"awaiting_signature":false,"enacted":false},"cosponsors_count":1,"short_title":null,"enacted_as":null,"popular_title":null,"related_bill_ids":["hr1922-111"],"last_version":{"version_name":"Introduced in Senate","bill_version_id":"s32-111-is","urls":{"pdf":"http://www.gpo.gov/fdsys/pkg/BILLS-111s32is/pdf/BILLS-111s32is.pdf","xml":"http://www.gpo.gov/fdsys/pkg/BILLS-111s32is/xml/BILLS-111s32is.xml","html":"http://www.gpo.gov/fdsys/pkg/BILLS-111s32is/html/BILLS-111s32is.htm"},"pages":3,"issued_on":"2009-01-06","version_code":"is"},"last_action_at":"2009-01-07","withdrawn_cosponsors_count":0,"bill_id":"s32-111","introduced_on":"2009-01-06","chamber":"senate","search":{"score":1,"type":"bill"}},{"congress":111,"last_version_on":"2009-01-06","sponsor_id":"V000127","urls":{"govtrack":"http://www.govtrack.us/congress/bills/111/s82","opencongress":"http://www.opencongress.org/bill/111-s82/show","congress":"http://beta.congress.gov/bill/111th/senate-bill/82"},"committee_ids":["SSFI"],"official_title":"A bill to amend title XXI of the Social Security Act to reauthorize the State Children's Health Insurance Program, to limit income eligibility expansions under that program until the lowest income eligible individuals are enrolled, and for other purposes.","number":82,"sponsor":{"name_suffix":null,"first_name":"David","title":"Sen","nickname":null,"middle_name":null,"last_name":"Vitter"},"bill_type":"s","last_vote_at":null,"history":{"vetoed":false,"active":false,"awaiting_signature":false,"enacted":false},"cosponsors_count":0,"short_title":"Enhancing Health Care Coverage for Children Act","enacted_as":null,"popular_title":null,"related_bill_ids":[],"last_version":{"version_name":"Introduced in Senate","bill_version_id":"s82-111-is","urls":{"pdf":"http://www.gpo.gov/fdsys/pkg/BILLS-111s82is/pdf/BILLS-111s82is.pdf","xml":"http://www.gpo.gov/fdsys/pkg/BILLS-111s82is/xml/BILLS-111s82is.xml","html":"http://www.gpo.gov/fdsys/pkg/BILLS-111s82is/html/BILLS-111s82is.htm"},"pages":17,"issued_on":"2009-01-06","version_code":"is"},"last_action_at":"2009-01-06","withdrawn_cosponsors_count":0,"bill_id":"s82-111","introduced_on":"2009-01-06","chamber":"senate","search":{"score":1,"type":"bill"}},{"congress":111,"last_version_on":"2009-01-06","sponsor_id":"V000127","urls":{"govtrack":"http://www.govtrack.us/congress/bills/111/s86","opencongress":"http://www.opencongress.org/bill/111-s86/show","congress":"http://beta.congress.gov/bill/111th/senate-bill/86"},"committee_ids":["SSBU"],"official_title":"A bill to establish a procedure to safeguard the Social Security Trust Funds.","number":86,"sponsor":{"name_suffix":null,"first_name":"David","title":"Sen","nickname":null,"middle_name":null,"last_name":"Vitter"},"bill_type":"s","last_vote_at":null,"history":{"vetoed":false,"active":false,"awaiting_signature":false,"enacted":false},"cosponsors_count":1,"short_title":"Social Security Lock-Box Act of 2009","enacted_as":null,"popular_title":null,"related_bill_ids":[],"last_version":{"version_name":"Introduced in Senate","bill_version_id":"s86-111-is","urls":{"pdf":"http://www.gpo.gov/fdsys/pkg/BILLS-111s86is/pdf/BILLS-111s86is.pdf","xml":"http://www.gpo.gov/fdsys/pkg/BILLS-111s86is/xml/BILLS-111s86is.xml","html":"http://www.gpo.gov/fdsys/pkg/BILLS-111s86is/html/BILLS-111s86is.htm"},"pages":6,"issued_on":"2009-01-06","version_code":"is"},"last_action_at":"2009-01-06","withdrawn_cosponsors_count":0,"bill_id":"s86-111","introduced_on":"2009-01-06","chamber":"senate","search":{"score":1,"type":"bill"}},{"congress":111,"last_version_on":"2009-01-06","sponsor_id":"I000025","urls":{"govtrack":"http://www.govtrack.us/congress/bills/111/s52","opencongress":"http://www.opencongress.org/bill/111-s52/show","congress":"http://beta.congress.gov/bill/111th/senate-bill/52"},"committee_ids":["SSFI"],"official_title":"A bill to amend title XIX of the Social Security Act to provide 100 percent reimbursement for medical assistance provided to a Native Hawaiian through a Federally-qualified health center or a Native Hawaiian health care system.","number":52,"sponsor":{"name_suffix":null,"first_name":"Daniel","title":"Sen","nickname":null,"middle_name":"K.","last_name":"Inouye"},"bill_type":"s","last_vote_at":null,"history":{"vetoed":false,"active":false,"awaiting_signature":false,"enacted":false},"cosponsors_count":1,"short_title":"Native Hawaiian Medicaid Coverage Act of 2009","enacted_as":null,"popular_title":null,"related_bill_ids":["hr6489-111"],"last_version":{"version_name":"Introduced in Senate","bill_version_id":"s52-111-is","urls":{"pdf":"http://www.gpo.gov/fdsys/pkg/BILLS-111s52is/pdf/BILLS-111s52is.pdf","xml":"http://www.gpo.gov/fdsys/pkg/BILLS-111s52is/xml/BILLS-111s52is.xml","html":"http://www.gpo.gov/fdsys/pkg/BILLS-111s52is/html/BILLS-111s52is.htm"},"pages":2,"issued_on":"2009-01-06","version_code":"is"},"last_action_at":"2009-01-06","withdrawn_cosponsors_count":0,"bill_id":"s52-111","introduced_on":"2009-01-06","chamber":"senate","search":{"score":1,"type":"bill"}},{"congress":112,"last_version_on":"2011-04-07","sponsor_id":"B000711","urls":{"govtrack":"http://www.govtrack.us/congress/bills/112/s759","opencongress":"http://www.opencongress.org/bill/112-s759/show","congress":"http://beta.congress.gov/bill/112th/senate-bill/759"},"committee_ids":["SSEG"],"official_title":"A bill to provide to the Secretary of the Interior a mechanism to cancel contracts for the sale of materials CA-20139 and CA-22901, and for other purposes.","number":759,"sponsor":{"name_suffix":null,"first_name":"Barbara","title":"Sen","nickname":null,"middle_name":null,"last_name":"Boxer"},"bill_type":"s","last_vote_at":null,"history":{"vetoed":false,"active":false,"awaiting_signature":false,"enacted":false},"cosponsors_count":0,"short_title":"Soledad Canyon High Desert, California Public Lands Conservation and Management Act of 2011","enacted_as":null,"popular_title":null,"related_bill_ids":[],"last_version":{"version_name":"Introduced in Senate","bill_version_id":"s759-112-is","urls":{"pdf":"http://www.gpo.gov/fdsys/pkg/BILLS-112s759is/pdf/BILLS-112s759is.pdf","xml":"http://www.gpo.gov/fdsys/pkg/BILLS-112s759is/xml/BILLS-112s759is.xml","html":"http://www.gpo.gov/fdsys/pkg/BILLS-112s759is/html/BILLS-112s759is.htm"},"pages":25,"issued_on":"2011-04-07","version_code":"is"},"last_action_at":"2011-04-07","withdrawn_cosponsors_count":0,"bill_id":"s759-112","introduced_on":"2011-04-07","chamber":"senate","search":{"score":1,"type":"bill"}}],"count":12744,"page":{"count":20,"per_page":20,"page":1}}